1 0.7902777777777777 0.6111111111111112 0.058333333333333334 0.1925925925925926
1 0.8833333333333333 0.24444444444444444 0.027777777777777776 0.08148148148148149
1 0.14166666666666666 0.3814814814814815 0.05 0.13333333333333333
1 0.7902777777777777 0.6111111111111112 0.058333333333333334 0.1925925925925926
1 0.8833333333333333 0.24444444444444444 0.027777777777777776 0.08148148148148149
1 0.14166666666666666 0.3814814814814815 0.05 0.13333333333333333
1 0.7902777777777777 0.6111111111111112 0.058333333333333334 0.1925925925925926
1 0.8833333333333333 0.24444444444444444 0.027777777777777776 0.08148148148148149
1 0.14166666666666666 0.3814814814814815 0.05 0.13333333333333333
