1 0.19166666666666668 0.3388888888888889 0.03888888888888889 0.12962962962962962
1 0.48055555555555557 0.8055555555555556 0.08333333333333333 0.26296296296296295
1 0.7291666666666666 0.5425925925925926 0.04722222222222222 0.15185185185185185
