1 0.7513888888888889 0.34814814814814815 0.03611111111111111 0.14074074074074075
1 0.6291666666666667 0.38333333333333336 0.03611111111111111 0.12222222222222222
1 0.30972222222222223 0.3351851851851852 0.03611111111111111 0.12222222222222222
1 0.7305555555555555 0.5481481481481482 0.05555555555555555 0.17037037037037037
