1 0.5180555555555556 0.39814814814814814 0.03611111111111111 0.14444444444444443
1 0.14305555555555555 0.17777777777777778 0.019444444444444445 0.06666666666666667
1 0.8263888888888888 0.24814814814814815 0.03611111111111111 0.0962962962962963
1 0.5583333333333333 0.3907407407407407 0.044444444444444446 0.14444444444444443
1 0.5180555555555556 0.39814814814814814 0.03611111111111111 0.14444444444444443
1 0.14305555555555555 0.17777777777777778 0.019444444444444445 0.06666666666666667
1 0.8263888888888888 0.24814814814814815 0.03611111111111111 0.0962962962962963
1 0.5583333333333333 0.3907407407407407 0.044444444444444446 0.14444444444444443
1 0.5180555555555556 0.39814814814814814 0.03611111111111111 0.14444444444444443
1 0.14305555555555555 0.17777777777777778 0.019444444444444445 0.06666666666666667
1 0.8263888888888888 0.24814814814814815 0.03611111111111111 0.0962962962962963
1 0.5583333333333333 0.3907407407407407 0.044444444444444446 0.14444444444444443
