1 0.7888888888888889 0.37037037037037035 0.03333333333333333 0.1259259259259259
1 0.24722222222222223 0.35555555555555557 0.03333333333333333 0.0962962962962963
1 0.7888888888888889 0.37037037037037035 0.03333333333333333 0.1259259259259259
1 0.24722222222222223 0.35555555555555557 0.03333333333333333 0.0962962962962963
1 0.7888888888888889 0.37037037037037035 0.03333333333333333 0.1259259259259259
1 0.24722222222222223 0.35555555555555557 0.03333333333333333 0.0962962962962963
