1 0.8263888888888888 0.40925925925925927 0.03611111111111111 0.13703703703703704
1 0.4597222222222222 0.37407407407407406 0.04722222222222222 0.13333333333333333
1 0.8263888888888888 0.40925925925925927 0.03611111111111111 0.13703703703703704
1 0.4597222222222222 0.37407407407407406 0.04722222222222222 0.13333333333333333
1 0.8263888888888888 0.40925925925925927 0.03611111111111111 0.13703703703703704
1 0.4597222222222222 0.37407407407407406 0.04722222222222222 0.13333333333333333
