1 0.5027777777777778 0.43148148148148147 0.03888888888888889 0.13703703703703704
1 0.6583333333333333 0.4537037037037037 0.03888888888888889 0.14444444444444443
1 0.7708333333333334 0.45740740740740743 0.04722222222222222 0.15185185185185185
1 0.2916666666666667 0.34629629629629627 0.03888888888888889 0.1
1 0.5027777777777778 0.43148148148148147 0.03888888888888889 0.13703703703703704
1 0.6583333333333333 0.4537037037037037 0.03888888888888889 0.14444444444444443
1 0.7708333333333334 0.45740740740740743 0.04722222222222222 0.15185185185185185
1 0.2916666666666667 0.34629629629629627 0.03888888888888889 0.1
1 0.5027777777777778 0.43148148148148147 0.03888888888888889 0.13703703703703704
1 0.6583333333333333 0.4537037037037037 0.03888888888888889 0.14444444444444443
1 0.7708333333333334 0.45740740740740743 0.04722222222222222 0.15185185185185185
1 0.2916666666666667 0.34629629629629627 0.03888888888888889 0.1
