1 0.19722222222222222 0.3333333333333333 0.03333333333333333 0.1111111111111111
1 0.375 0.4074074074074074 0.05 0.14814814814814814
1 0.7472222222222222 0.4962962962962963 0.05 0.14074074074074075
1 0.875 0.48703703703703705 0.044444444444444446 0.14444444444444443
1 0.7097222222222223 0.3037037037037037 0.03611111111111111 0.13333333333333333
1 0.19722222222222222 0.3333333333333333 0.03333333333333333 0.1111111111111111
1 0.375 0.4074074074074074 0.05 0.14814814814814814
1 0.7472222222222222 0.4962962962962963 0.05 0.14074074074074075
1 0.875 0.48703703703703705 0.044444444444444446 0.14444444444444443
1 0.7097222222222223 0.3037037037037037 0.03611111111111111 0.13333333333333333
1 0.19722222222222222 0.3333333333333333 0.03333333333333333 0.1111111111111111
1 0.375 0.4074074074074074 0.05 0.14814814814814814
1 0.7472222222222222 0.4962962962962963 0.05 0.14074074074074075
1 0.875 0.48703703703703705 0.044444444444444446 0.14444444444444443
1 0.7097222222222223 0.3037037037037037 0.03611111111111111 0.13333333333333333
