1 0.6930555555555555 0.337037037037037 0.030555555555555555 0.1259259259259259
1 0.4305555555555556 0.35555555555555557 0.03333333333333333 0.11851851851851852
1 0.21805555555555556 0.3425925925925926 0.030555555555555555 0.10740740740740741
1 0.6097222222222223 0.3277777777777778 0.025 0.10740740740740741
