1 0.7097222222222223 0.45740740740740743 0.041666666666666664 0.15185185185185185
1 0.525 0.46111111111111114 0.03888888888888889 0.16666666666666666
1 0.9263888888888889 0.6351851851851852 0.05277777777777778 0.2111111111111111
