1 0.8513888888888889 0.6203703703703703 0.041666666666666664 0.1814814814814815
1 0.8083333333333333 0.43703703703703706 0.03888888888888889 0.14074074074074075
1 0.36944444444444446 0.8703703703703703 0.07222222222222222 0.2518518518518518
