1 0.20416666666666666 0.3388888888888889 0.030555555555555555 0.11481481481481481
1 0.39444444444444443 0.412962962962963 0.05 0.14444444444444443
1 0.725 0.30925925925925923 0.03888888888888889 0.12962962962962962
1 0.8666666666666667 0.47962962962962963 0.044444444444444446 0.15925925925925927
1 0.20416666666666666 0.3388888888888889 0.030555555555555555 0.11481481481481481
1 0.39444444444444443 0.412962962962963 0.05 0.14444444444444443
1 0.725 0.30925925925925923 0.03888888888888889 0.12962962962962962
1 0.8666666666666667 0.47962962962962963 0.044444444444444446 0.15925925925925927
1 0.20416666666666666 0.3388888888888889 0.030555555555555555 0.11481481481481481
1 0.39444444444444443 0.412962962962963 0.05 0.14444444444444443
1 0.725 0.30925925925925923 0.03888888888888889 0.12962962962962962
1 0.8666666666666667 0.47962962962962963 0.044444444444444446 0.15925925925925927
