1 0.6541666666666667 0.44814814814814813 0.03611111111111111 0.14814814814814814
1 0.7125 0.4444444444444444 0.041666666666666664 0.13333333333333333
1 0.8611111111111112 0.5314814814814814 0.05555555555555555 0.1814814814814815
1 0.5097222222222222 0.3814814814814815 0.03611111111111111 0.14074074074074075
1 0.6541666666666667 0.44814814814814813 0.03611111111111111 0.14814814814814814
1 0.7125 0.4444444444444444 0.041666666666666664 0.13333333333333333
1 0.8611111111111112 0.5314814814814814 0.05555555555555555 0.1814814814814815
1 0.5097222222222222 0.3814814814814815 0.03611111111111111 0.14074074074074075
1 0.6541666666666667 0.44814814814814813 0.03611111111111111 0.14814814814814814
1 0.7125 0.4444444444444444 0.041666666666666664 0.13333333333333333
1 0.8611111111111112 0.5314814814814814 0.05555555555555555 0.1814814814814815
1 0.5097222222222222 0.3814814814814815 0.03611111111111111 0.14074074074074075
