1 0.5222222222222223 0.39814814814814814 0.03888888888888889 0.14444444444444443
1 0.14583333333333334 0.17962962962962964 0.019444444444444445 0.07037037037037037
1 0.8263888888888888 0.25 0.03611111111111111 0.1
1 0.5611111111111111 0.39444444444444443 0.044444444444444446 0.14444444444444443
1 0.5222222222222223 0.39814814814814814 0.03888888888888889 0.14444444444444443
1 0.14583333333333334 0.17962962962962964 0.019444444444444445 0.07037037037037037
1 0.8263888888888888 0.25 0.03611111111111111 0.1
1 0.5611111111111111 0.39444444444444443 0.044444444444444446 0.14444444444444443
1 0.5222222222222223 0.39814814814814814 0.03888888888888889 0.14444444444444443
1 0.14583333333333334 0.17962962962962964 0.019444444444444445 0.07037037037037037
1 0.8263888888888888 0.25 0.03611111111111111 0.1
1 0.5611111111111111 0.39444444444444443 0.044444444444444446 0.14444444444444443
