1 0.5013888888888889 0.3851851851851852 0.041666666666666664 0.1259259259259259
1 0.40694444444444444 0.34629629629629627 0.030555555555555555 0.1
1 0.7819444444444444 0.45925925925925926 0.041666666666666664 0.16296296296296298
1 0.6430555555555556 0.40555555555555556 0.03611111111111111 0.14444444444444443
1 0.5986111111111111 0.40185185185185185 0.03611111111111111 0.13703703703703704
1 0.5013888888888889 0.3851851851851852 0.041666666666666664 0.1259259259259259
1 0.40694444444444444 0.34629629629629627 0.030555555555555555 0.1
1 0.7819444444444444 0.45925925925925926 0.041666666666666664 0.16296296296296298
1 0.6430555555555556 0.40555555555555556 0.03611111111111111 0.14444444444444443
1 0.5986111111111111 0.40185185185185185 0.03611111111111111 0.13703703703703704
1 0.5013888888888889 0.3851851851851852 0.041666666666666664 0.1259259259259259
1 0.40694444444444444 0.34629629629629627 0.030555555555555555 0.1
1 0.7819444444444444 0.45925925925925926 0.041666666666666664 0.16296296296296298
1 0.6430555555555556 0.40555555555555556 0.03611111111111111 0.14444444444444443
1 0.5986111111111111 0.40185185185185185 0.03611111111111111 0.13703703703703704
