1 0.29305555555555557 0.3962962962962963 0.041666666666666664 0.1259259259259259
1 0.8375 0.5574074074074075 0.04722222222222222 0.17407407407407408
1 0.6361111111111111 0.3296296296296296 0.03888888888888889 0.1259259259259259
1 0.29305555555555557 0.3962962962962963 0.041666666666666664 0.1259259259259259
1 0.8375 0.5574074074074075 0.04722222222222222 0.17407407407407408
1 0.6361111111111111 0.3296296296296296 0.03888888888888889 0.1259259259259259
1 0.29305555555555557 0.3962962962962963 0.041666666666666664 0.1259259259259259
1 0.8375 0.5574074074074075 0.04722222222222222 0.17407407407407408
1 0.6361111111111111 0.3296296296296296 0.03888888888888889 0.1259259259259259
