1 0.1375 0.3314814814814815 0.03611111111111111 0.1
1 0.8097222222222222 0.5462962962962963 0.04722222222222222 0.15925925925925927
1 0.6680555555555555 0.32222222222222224 0.041666666666666664 0.13333333333333333
1 0.3125 0.40185185185185185 0.03611111111111111 0.10740740740740741
1 0.9305555555555556 0.5185185185185185 0.05 0.14814814814814814
1 0.1375 0.3314814814814815 0.03611111111111111 0.1
1 0.8097222222222222 0.5462962962962963 0.04722222222222222 0.15925925925925927
1 0.6680555555555555 0.32222222222222224 0.041666666666666664 0.13333333333333333
1 0.3125 0.40185185185185185 0.03611111111111111 0.10740740740740741
1 0.9305555555555556 0.5185185185185185 0.05 0.14814814814814814
1 0.1375 0.3314814814814815 0.03611111111111111 0.1
1 0.8097222222222222 0.5462962962962963 0.04722222222222222 0.15925925925925927
1 0.6680555555555555 0.32222222222222224 0.041666666666666664 0.13333333333333333
1 0.3125 0.40185185185185185 0.03611111111111111 0.10740740740740741
1 0.9305555555555556 0.5185185185185185 0.05 0.14814814814814814
