1 0.6152777777777778 0.3925925925925926 0.041666666666666664 0.14814814814814814
1 0.9083333333333333 0.45555555555555555 0.05 0.16296296296296298
1 0.6152777777777778 0.3925925925925926 0.041666666666666664 0.14814814814814814
1 0.9083333333333333 0.45555555555555555 0.05 0.16296296296296298
