1 0.3388888888888889 0.40555555555555556 0.03888888888888889 0.13703703703703704
1 0.9069444444444444 0.5055555555555555 0.058333333333333334 0.14444444444444443
1 0.1486111111111111 0.3296296296296296 0.030555555555555555 0.0962962962962963
1 0.7805555555555556 0.512962962962963 0.044444444444444446 0.15925925925925927
1 0.6805555555555556 0.30925925925925923 0.03333333333333333 0.12222222222222222
1 0.3388888888888889 0.40555555555555556 0.03888888888888889 0.13703703703703704
1 0.9069444444444444 0.5055555555555555 0.058333333333333334 0.14444444444444443
1 0.1486111111111111 0.3296296296296296 0.030555555555555555 0.0962962962962963
1 0.7805555555555556 0.512962962962963 0.044444444444444446 0.15925925925925927
1 0.6805555555555556 0.30925925925925923 0.03333333333333333 0.12222222222222222
1 0.3388888888888889 0.40555555555555556 0.03888888888888889 0.13703703703703704
1 0.9069444444444444 0.5055555555555555 0.058333333333333334 0.14444444444444443
1 0.1486111111111111 0.3296296296296296 0.030555555555555555 0.0962962962962963
1 0.7805555555555556 0.512962962962963 0.044444444444444446 0.15925925925925927
1 0.6805555555555556 0.30925925925925923 0.03333333333333333 0.12222222222222222
