1 0.8694444444444445 0.4351851851851852 0.03888888888888889 0.12962962962962962
1 0.8541666666666666 0.6185185185185185 0.041666666666666664 0.17777777777777778
1 0.37777777777777777 0.8722222222222222 0.08333333333333333 0.25555555555555554
1 0.7791666666666667 0.43703703703703706 0.04722222222222222 0.14074074074074075
