1 0.5236111111111111 0.8648148148148148 0.06944444444444445 0.27037037037037037
1 0.7694444444444445 0.562962962962963 0.05 0.18518518518518517
1 0.08611111111111111 0.37592592592592594 0.03333333333333333 0.12222222222222222
1 0.6305555555555555 0.37407407407407406 0.03888888888888889 0.13333333333333333
