1 0.24444444444444444 0.3296296296296296 0.03888888888888889 0.11851851851851852
1 0.8208333333333333 0.37962962962962965 0.03611111111111111 0.12962962962962962
1 0.9152777777777777 0.6111111111111112 0.058333333333333334 0.2
1 0.38055555555555554 0.3333333333333333 0.03888888888888889 0.11851851851851852
1 0.6194444444444445 0.42962962962962964 0.03333333333333333 0.14074074074074075
