1 0.24444444444444444 0.3925925925925926 0.044444444444444446 0.14074074074074075
1 0.8736111111111111 0.5907407407407408 0.04722222222222222 0.18888888888888888
1 0.24444444444444444 0.3925925925925926 0.044444444444444446 0.14074074074074075
1 0.8736111111111111 0.5907407407407408 0.04722222222222222 0.18888888888888888
1 0.24444444444444444 0.3925925925925926 0.044444444444444446 0.14074074074074075
1 0.8736111111111111 0.5907407407407408 0.04722222222222222 0.18888888888888888
