1 0.9236111111111112 0.5481481481481482 0.058333333333333334 0.18518518518518517
1 0.5055555555555555 0.4 0.03888888888888889 0.14814814814814814
1 0.9236111111111112 0.5481481481481482 0.058333333333333334 0.18518518518518517
1 0.5055555555555555 0.4 0.03888888888888889 0.14814814814814814
1 0.9236111111111112 0.5481481481481482 0.058333333333333334 0.18518518518518517
1 0.5055555555555555 0.4 0.03888888888888889 0.14814814814814814
