1 0.7263888888888889 0.412962962962963 0.03611111111111111 0.15185185185185185
1 0.9375 0.5037037037037037 0.041666666666666664 0.14074074074074075
1 0.9777777777777777 0.5018518518518519 0.03333333333333333 0.12962962962962962
1 0.7263888888888889 0.412962962962963 0.03611111111111111 0.15185185185185185
1 0.9375 0.5037037037037037 0.041666666666666664 0.14074074074074075
1 0.9777777777777777 0.5018518518518519 0.03333333333333333 0.12962962962962962
