1 0.44027777777777777 0.8722222222222222 0.08611111111111111 0.25555555555555554
1 0.85 0.6185185185185185 0.044444444444444446 0.17777777777777778
1 0.7125 0.40925925925925927 0.04722222222222222 0.13703703703703704
1 0.23055555555555557 0.30925925925925923 0.03888888888888889 0.11481481481481481
1 0.9277777777777778 0.46296296296296297 0.05555555555555555 0.15555555555555556
1 0.6708333333333333 0.6111111111111112 0.058333333333333334 0.1925925925925926
