1 0.8680555555555556 0.5203703703703704 0.058333333333333334 0.15185185185185185
1 0.5166666666666667 0.39814814814814814 0.05 0.16666666666666666
1 0.8680555555555556 0.5203703703703704 0.058333333333333334 0.15185185185185185
1 0.5166666666666667 0.39814814814814814 0.05 0.16666666666666666
1 0.8680555555555556 0.5203703703703704 0.058333333333333334 0.15185185185185185
1 0.5166666666666667 0.39814814814814814 0.05 0.16666666666666666
