1 0.4013888888888889 0.34814814814814815 0.03611111111111111 0.11851851851851852
1 0.8708333333333333 0.25 0.030555555555555555 0.08518518518518518
1 0.9083333333333333 0.4444444444444444 0.044444444444444446 0.14074074074074075
1 0.4013888888888889 0.34814814814814815 0.03611111111111111 0.11851851851851852
1 0.8708333333333333 0.25 0.030555555555555555 0.08518518518518518
1 0.9083333333333333 0.4444444444444444 0.044444444444444446 0.14074074074074075
1 0.4013888888888889 0.34814814814814815 0.03611111111111111 0.11851851851851852
1 0.8708333333333333 0.25 0.030555555555555555 0.08518518518518518
1 0.9083333333333333 0.4444444444444444 0.044444444444444446 0.14074074074074075
