1 0.2569444444444444 0.8703703703703703 0.08055555555555556 0.2740740740740741
1 0.7638888888888888 0.3648148148148148 0.03888888888888889 0.12962962962962962
1 0.8486111111111111 0.6203703703703703 0.04722222222222222 0.17407407407407408
