1 0.4888888888888889 0.40925925925925927 0.044444444444444446 0.13703703703703704
1 0.9111111111111111 0.5574074074074075 0.05555555555555555 0.17407407407407408
1 0.4888888888888889 0.40925925925925927 0.044444444444444446 0.13703703703703704
1 0.9111111111111111 0.5574074074074075 0.05555555555555555 0.17407407407407408
1 0.4888888888888889 0.40925925925925927 0.044444444444444446 0.13703703703703704
1 0.9111111111111111 0.5574074074074075 0.05555555555555555 0.17407407407407408
