1 0.8055555555555556 0.38333333333333336 0.03888888888888889 0.12962962962962962
1 0.2222222222222222 0.34814814814814815 0.03333333333333333 0.11851851851851852
1 0.3388888888888889 0.7851851851851852 0.06666666666666667 0.25925925925925924
1 0.3888888888888889 0.774074074074074 0.06666666666666667 0.2518518518518518
1 0.8541666666666666 0.5833333333333334 0.05277777777777778 0.18888888888888888
