1 0.8333333333333334 0.24814814814814815 0.03888888888888889 0.1037037037037037
1 0.13194444444444445 0.1814814814814815 0.019444444444444445 0.06666666666666667
1 0.6541666666666667 0.4 0.041666666666666664 0.1259259259259259
1 0.5208333333333334 0.40555555555555556 0.03611111111111111 0.13703703703703704
1 0.5625 0.3962962962962963 0.041666666666666664 0.14074074074074075
1 0.8333333333333334 0.24814814814814815 0.03888888888888889 0.1037037037037037
1 0.13194444444444445 0.1814814814814815 0.019444444444444445 0.06666666666666667
1 0.6541666666666667 0.4 0.041666666666666664 0.1259259259259259
1 0.5208333333333334 0.40555555555555556 0.03611111111111111 0.13703703703703704
1 0.5625 0.3962962962962963 0.041666666666666664 0.14074074074074075
1 0.8333333333333334 0.24814814814814815 0.03888888888888889 0.1037037037037037
1 0.13194444444444445 0.1814814814814815 0.019444444444444445 0.06666666666666667
1 0.6541666666666667 0.4 0.041666666666666664 0.1259259259259259
1 0.5208333333333334 0.40555555555555556 0.03611111111111111 0.13703703703703704
1 0.5625 0.3962962962962963 0.041666666666666664 0.14074074074074075
