1 0.7847222222222222 0.35185185185185186 0.03611111111111111 0.1259259259259259
1 0.29305555555555557 0.34814814814814815 0.03611111111111111 0.1111111111111111
1 0.8138888888888889 0.362962962962963 0.03333333333333333 0.11851851851851852
1 0.45 0.3351851851851852 0.044444444444444446 0.11481481481481481
1 0.3958333333333333 0.42962962962962964 0.058333333333333334 0.14814814814814814
1 0.7847222222222222 0.35185185185185186 0.03611111111111111 0.1259259259259259
1 0.29305555555555557 0.34814814814814815 0.03611111111111111 0.1111111111111111
1 0.8138888888888889 0.362962962962963 0.03333333333333333 0.11851851851851852
1 0.45 0.3351851851851852 0.044444444444444446 0.11481481481481481
1 0.3958333333333333 0.42962962962962964 0.058333333333333334 0.14814814814814814
1 0.7847222222222222 0.35185185185185186 0.03611111111111111 0.1259259259259259
1 0.29305555555555557 0.34814814814814815 0.03611111111111111 0.1111111111111111
1 0.8138888888888889 0.362962962962963 0.03333333333333333 0.11851851851851852
1 0.45 0.3351851851851852 0.044444444444444446 0.11481481481481481
1 0.3958333333333333 0.42962962962962964 0.058333333333333334 0.14814814814814814
