1 0.29444444444444445 0.7777777777777778 0.07777777777777778 0.24444444444444444
1 0.20277777777777778 0.35 0.027777777777777776 0.11481481481481481
1 0.3611111111111111 0.7722222222222223 0.07777777777777778 0.24814814814814815
1 0.8513888888888889 0.5981481481481481 0.04722222222222222 0.1814814814814815
