1 0.7805555555555556 0.34814814814814815 0.03888888888888889 0.13333333333333333
1 0.8513888888888889 0.6166666666666667 0.041666666666666664 0.1814814814814815
1 0.3013888888888889 0.7555555555555555 0.075 0.2518518518518518
1 0.15138888888888888 0.34629629629629627 0.030555555555555555 0.11481481481481481
