1 0.4930555555555556 0.40925925925925927 0.04722222222222222 0.13703703703703704
1 0.9152777777777777 0.562962962962963 0.058333333333333334 0.17777777777777778
1 0.4930555555555556 0.40925925925925927 0.04722222222222222 0.13703703703703704
1 0.9152777777777777 0.562962962962963 0.058333333333333334 0.17777777777777778
1 0.4930555555555556 0.40925925925925927 0.04722222222222222 0.13703703703703704
1 0.9152777777777777 0.562962962962963 0.058333333333333334 0.17777777777777778
