1 0.6416666666666667 0.4444444444444444 0.044444444444444446 0.1259259259259259
1 0.7444444444444445 0.4444444444444444 0.03333333333333333 0.14074074074074075
1 0.8027777777777778 0.28888888888888886 0.03333333333333333 0.1037037037037037
1 0.8972222222222223 0.22962962962962963 0.022222222222222223 0.08148148148148149
1 0.6416666666666667 0.4444444444444444 0.044444444444444446 0.1259259259259259
1 0.7444444444444445 0.4444444444444444 0.03333333333333333 0.14074074074074075
1 0.8027777777777778 0.28888888888888886 0.03333333333333333 0.1037037037037037
1 0.8972222222222223 0.22962962962962963 0.022222222222222223 0.08148148148148149
1 0.6416666666666667 0.4444444444444444 0.044444444444444446 0.1259259259259259
1 0.7444444444444445 0.4444444444444444 0.03333333333333333 0.14074074074074075
1 0.8027777777777778 0.28888888888888886 0.03333333333333333 0.1037037037037037
1 0.8972222222222223 0.22962962962962963 0.022222222222222223 0.08148148148148149
