1 0.7569444444444444 0.4981481481481482 0.041666666666666664 0.15185185185185185
1 0.6013888888888889 0.48148148148148145 0.03611111111111111 0.14814814814814814
1 0.8333333333333334 0.5851851851851851 0.05 0.2074074074074074
