1 0.2361111111111111 0.34074074074074073 0.03888888888888889 0.1111111111111111
1 0.45416666666666666 0.4462962962962963 0.04722222222222222 0.13703703703703704
1 0.8 0.3333333333333333 0.03333333333333333 0.1037037037037037
1 0.7819444444444444 0.3296296296296296 0.03611111111111111 0.11851851851851852
1 0.3763888888888889 0.3333333333333333 0.04722222222222222 0.1037037037037037
1 0.2361111111111111 0.34074074074074073 0.03888888888888889 0.1111111111111111
1 0.45416666666666666 0.4462962962962963 0.04722222222222222 0.13703703703703704
1 0.8 0.3333333333333333 0.03333333333333333 0.1037037037037037
1 0.7819444444444444 0.3296296296296296 0.03611111111111111 0.11851851851851852
1 0.3763888888888889 0.3333333333333333 0.04722222222222222 0.1037037037037037
1 0.2361111111111111 0.34074074074074073 0.03888888888888889 0.1111111111111111
1 0.45416666666666666 0.4462962962962963 0.04722222222222222 0.13703703703703704
1 0.8 0.3333333333333333 0.03333333333333333 0.1037037037037037
1 0.7819444444444444 0.3296296296296296 0.03611111111111111 0.11851851851851852
1 0.3763888888888889 0.3333333333333333 0.04722222222222222 0.1037037037037037
