1 0.6125 0.44814814814814813 0.041666666666666664 0.16296296296296298
1 0.7222222222222222 0.4648148148148148 0.03888888888888889 0.14444444444444443
1 0.9055555555555556 0.6259259259259259 0.05555555555555555 0.21481481481481482
