1 0.20694444444444443 0.3388888888888889 0.030555555555555555 0.11481481481481481
1 0.4 0.412962962962963 0.05 0.14444444444444443
1 0.7277777777777777 0.30925925925925923 0.03888888888888889 0.12962962962962962
1 0.8638888888888889 0.4759259259259259 0.044444444444444446 0.15925925925925927
1 0.20694444444444443 0.3388888888888889 0.030555555555555555 0.11481481481481481
1 0.4 0.412962962962963 0.05 0.14444444444444443
1 0.7277777777777777 0.30925925925925923 0.03888888888888889 0.12962962962962962
1 0.8638888888888889 0.4759259259259259 0.044444444444444446 0.15925925925925927
1 0.20694444444444443 0.3388888888888889 0.030555555555555555 0.11481481481481481
1 0.4 0.412962962962963 0.05 0.14444444444444443
1 0.7277777777777777 0.30925925925925923 0.03888888888888889 0.12962962962962962
1 0.8638888888888889 0.4759259259259259 0.044444444444444446 0.15925925925925927
