1 0.7513888888888889 0.3962962962962963 0.03611111111111111 0.15555555555555556
1 0.5041666666666667 0.3851851851851852 0.030555555555555555 0.1259259259259259
1 0.3638888888888889 0.37037037037037035 0.03333333333333333 0.1111111111111111
1 0.6097222222222223 0.3592592592592593 0.030555555555555555 0.1111111111111111
1 0.7513888888888889 0.3962962962962963 0.03611111111111111 0.15555555555555556
1 0.5041666666666667 0.3851851851851852 0.030555555555555555 0.1259259259259259
1 0.3638888888888889 0.37037037037037035 0.03333333333333333 0.1111111111111111
1 0.6097222222222223 0.3592592592592593 0.030555555555555555 0.1111111111111111
1 0.7513888888888889 0.3962962962962963 0.03611111111111111 0.15555555555555556
1 0.5041666666666667 0.3851851851851852 0.030555555555555555 0.1259259259259259
1 0.3638888888888889 0.37037037037037035 0.03333333333333333 0.1111111111111111
1 0.6097222222222223 0.3592592592592593 0.030555555555555555 0.1111111111111111
