1 0.8597222222222223 0.5166666666666667 0.058333333333333334 0.15185185185185185
1 0.5194444444444445 0.39814814814814814 0.05 0.16666666666666666
1 0.8597222222222223 0.5166666666666667 0.058333333333333334 0.15185185185185185
1 0.5194444444444445 0.39814814814814814 0.05 0.16666666666666666
1 0.8597222222222223 0.5166666666666667 0.058333333333333334 0.15185185185185185
1 0.5194444444444445 0.39814814814814814 0.05 0.16666666666666666
