1 0.8583333333333333 0.4222222222222222 0.03888888888888889 0.15555555555555556
1 0.2861111111111111 0.3351851851851852 0.03333333333333333 0.10740740740740741
1 0.475 0.774074074074074 0.06666666666666667 0.2518518518518518
1 0.1986111111111111 0.32592592592592595 0.030555555555555555 0.1037037037037037
1 0.44583333333333336 0.337037037037037 0.03611111111111111 0.1111111111111111
