1 0.7555555555555555 0.3537037037037037 0.03333333333333333 0.12222222222222222
1 0.8555555555555555 0.6166666666666667 0.044444444444444446 0.1814814814814815
1 0.043055555555555555 0.362962962962963 0.030555555555555555 0.11851851851851852
