1 0.7236111111111111 0.5851851851851851 0.05277777777777778 0.18518518518518517
1 0.8777777777777778 0.24814814814814815 0.03333333333333333 0.08148148148148149
1 0.7236111111111111 0.5851851851851851 0.05277777777777778 0.18518518518518517
1 0.8777777777777778 0.24814814814814815 0.03333333333333333 0.08148148148148149
1 0.7236111111111111 0.5851851851851851 0.05277777777777778 0.18518518518518517
1 0.8777777777777778 0.24814814814814815 0.03333333333333333 0.08148148148148149
