1 0.5194444444444445 0.39444444444444443 0.03888888888888889 0.14444444444444443
1 0.15555555555555556 0.17592592592592593 0.016666666666666666 0.07037037037037037
1 0.5597222222222222 0.3888888888888889 0.041666666666666664 0.14074074074074075
1 0.8208333333333333 0.24814814814814815 0.030555555555555555 0.1037037037037037
1 0.7125 0.4074074074074074 0.03611111111111111 0.11851851851851852
1 0.5194444444444445 0.39444444444444443 0.03888888888888889 0.14444444444444443
1 0.15555555555555556 0.17592592592592593 0.016666666666666666 0.07037037037037037
1 0.5597222222222222 0.3888888888888889 0.041666666666666664 0.14074074074074075
1 0.8208333333333333 0.24814814814814815 0.030555555555555555 0.1037037037037037
1 0.7125 0.4074074074074074 0.03611111111111111 0.11851851851851852
1 0.5194444444444445 0.39444444444444443 0.03888888888888889 0.14444444444444443
1 0.15555555555555556 0.17592592592592593 0.016666666666666666 0.07037037037037037
1 0.5597222222222222 0.3888888888888889 0.041666666666666664 0.14074074074074075
1 0.8208333333333333 0.24814814814814815 0.030555555555555555 0.1037037037037037
1 0.7125 0.4074074074074074 0.03611111111111111 0.11851851851851852
