1 0.6583333333333333 0.34074074074074073 0.03888888888888889 0.13333333333333333
1 0.4027777777777778 0.34814814814814815 0.03333333333333333 0.1259259259259259
1 0.2222222222222222 0.3388888888888889 0.03333333333333333 0.11481481481481481
