1 0.09861111111111111 0.19814814814814816 0.019444444444444445 0.06296296296296296
1 0.8611111111111112 0.24074074074074073 0.027777777777777776 0.0962962962962963
1 0.8388888888888889 0.2351851851851852 0.027777777777777776 0.1
1 0.5972222222222222 0.39444444444444443 0.03333333333333333 0.14444444444444443
1 0.5652777777777778 0.39814814814814814 0.03611111111111111 0.13703703703703704
1 0.09861111111111111 0.19814814814814816 0.019444444444444445 0.06296296296296296
1 0.8611111111111112 0.24074074074074073 0.027777777777777776 0.0962962962962963
1 0.8388888888888889 0.2351851851851852 0.027777777777777776 0.1
1 0.5972222222222222 0.39444444444444443 0.03333333333333333 0.14444444444444443
1 0.5652777777777778 0.39814814814814814 0.03611111111111111 0.13703703703703704
1 0.09861111111111111 0.19814814814814816 0.019444444444444445 0.06296296296296296
1 0.8611111111111112 0.24074074074074073 0.027777777777777776 0.0962962962962963
1 0.8388888888888889 0.2351851851851852 0.027777777777777776 0.1
1 0.5972222222222222 0.39444444444444443 0.03333333333333333 0.14444444444444443
1 0.5652777777777778 0.39814814814814814 0.03611111111111111 0.13703703703703704
