1 0.3888888888888889 0.3907407407407407 0.03888888888888889 0.15925925925925927
1 0.7069444444444445 0.4111111111111111 0.03611111111111111 0.14814814814814814
1 0.6597222222222222 0.42962962962962964 0.03611111111111111 0.14814814814814814
1 0.7611111111111111 0.26666666666666666 0.027777777777777776 0.0962962962962963
