1 0.8236111111111111 0.2833333333333333 0.03611111111111111 0.1
1 0.6111111111111112 0.3611111111111111 0.03333333333333333 0.12222222222222222
1 0.6708333333333333 0.49444444444444446 0.041666666666666664 0.15925925925925927
1 0.06666666666666667 0.362962962962963 0.03888888888888889 0.11851851851851852
1 0.8236111111111111 0.2833333333333333 0.03611111111111111 0.1
1 0.6111111111111112 0.3611111111111111 0.03333333333333333 0.12222222222222222
1 0.6708333333333333 0.49444444444444446 0.041666666666666664 0.15925925925925927
1 0.06666666666666667 0.362962962962963 0.03888888888888889 0.11851851851851852
1 0.8236111111111111 0.2833333333333333 0.03611111111111111 0.1
1 0.6111111111111112 0.3611111111111111 0.03333333333333333 0.12222222222222222
1 0.6708333333333333 0.49444444444444446 0.041666666666666664 0.15925925925925927
1 0.06666666666666667 0.362962962962963 0.03888888888888889 0.11851851851851852
