1 0.40694444444444444 0.7240740740740741 0.08611111111111111 0.23333333333333334
1 0.24444444444444444 0.32592592592592595 0.03333333333333333 0.1111111111111111
1 0.8069444444444445 0.3685185185185185 0.03611111111111111 0.13703703703703704
1 0.8847222222222222 0.6 0.05277777777777778 0.2
1 0.37916666666666665 0.3296296296296296 0.03611111111111111 0.11851851851851852
1 0.3625 0.3277777777777778 0.030555555555555555 0.12222222222222222
