1 0.7638888888888888 0.5574074074074075 0.05 0.18888888888888888
1 0.7638888888888888 0.35 0.03333333333333333 0.13703703703703704
1 0.30833333333333335 0.3314814814814815 0.03888888888888889 0.11481481481481481
1 0.6263888888888889 0.3925925925925926 0.03611111111111111 0.1259259259259259
