1 0.6638888888888889 0.45 0.044444444444444446 0.15925925925925927
1 0.7055555555555556 0.8629629629629629 0.09444444444444444 0.2740740740740741
1 0.8263888888888888 0.5574074074074075 0.04722222222222222 0.17407407407407408
1 0.3138888888888889 0.37962962962962965 0.03333333333333333 0.11481481481481481
1 0.8861111111111111 0.45 0.03888888888888889 0.15185185185185185
