1 0.6513888888888889 0.3333333333333333 0.03611111111111111 0.11851851851851852
1 0.8583333333333333 0.43333333333333335 0.044444444444444446 0.13333333333333333
1 0.5027777777777778 0.37777777777777777 0.03333333333333333 0.13333333333333333
1 0.4041666666666667 0.39814814814814814 0.041666666666666664 0.12962962962962962
1 0.6513888888888889 0.3333333333333333 0.03611111111111111 0.11851851851851852
1 0.8583333333333333 0.43333333333333335 0.044444444444444446 0.13333333333333333
1 0.5027777777777778 0.37777777777777777 0.03333333333333333 0.13333333333333333
1 0.4041666666666667 0.39814814814814814 0.041666666666666664 0.12962962962962962
1 0.6513888888888889 0.3333333333333333 0.03611111111111111 0.11851851851851852
1 0.8583333333333333 0.43333333333333335 0.044444444444444446 0.13333333333333333
1 0.5027777777777778 0.37777777777777777 0.03333333333333333 0.13333333333333333
1 0.4041666666666667 0.39814814814814814 0.041666666666666664 0.12962962962962962
