1 0.9708333333333333 0.5222222222222223 0.05277777777777778 0.16296296296296298
1 0.4583333333333333 0.37222222222222223 0.05555555555555555 0.12222222222222222
1 0.7805555555555556 0.43148148148148147 0.044444444444444446 0.13703703703703704
