1 0.18055555555555555 0.1648148148148148 0.016666666666666666 0.06296296296296296
1 0.5152777777777777 0.3925925925925926 0.03611111111111111 0.14074074074074075
1 0.18055555555555555 0.1648148148148148 0.016666666666666666 0.06296296296296296
1 0.5152777777777777 0.3925925925925926 0.03611111111111111 0.14074074074074075
1 0.18055555555555555 0.1648148148148148 0.016666666666666666 0.06296296296296296
1 0.5152777777777777 0.3925925925925926 0.03611111111111111 0.14074074074074075
