1 0.2722222222222222 0.7685185185185185 0.08333333333333333 0.3296296296296296
1 0.8541666666666666 0.6166666666666667 0.041666666666666664 0.1814814814814815
1 0.7791666666666667 0.34074074074074073 0.03611111111111111 0.14074074074074075
1 0.09583333333333334 0.35555555555555557 0.03611111111111111 0.1111111111111111
