1 0.5222222222222223 0.4 0.03888888888888889 0.14814814814814814
1 0.1597222222222222 0.17592592592592593 0.019444444444444445 0.07037037037037037
1 0.5625 0.3907407407407407 0.041666666666666664 0.14444444444444443
1 0.8222222222222222 0.25 0.03333333333333333 0.10740740740740741
1 0.7125 0.40925925925925927 0.03611111111111111 0.12222222222222222
1 0.5222222222222223 0.4 0.03888888888888889 0.14814814814814814
1 0.1597222222222222 0.17592592592592593 0.019444444444444445 0.07037037037037037
1 0.5625 0.3907407407407407 0.041666666666666664 0.14444444444444443
1 0.8222222222222222 0.25 0.03333333333333333 0.10740740740740741
1 0.7125 0.40925925925925927 0.03611111111111111 0.12222222222222222
1 0.5222222222222223 0.4 0.03888888888888889 0.14814814814814814
1 0.1597222222222222 0.17592592592592593 0.019444444444444445 0.07037037037037037
1 0.5625 0.3907407407407407 0.041666666666666664 0.14444444444444443
1 0.8222222222222222 0.25 0.03333333333333333 0.10740740740740741
1 0.7125 0.40925925925925927 0.03611111111111111 0.12222222222222222
