1 0.7777777777777778 0.3425925925925926 0.03888888888888889 0.12222222222222222
1 0.8152777777777778 0.34629629629629627 0.03611111111111111 0.11481481481481481
1 0.24861111111111112 0.34444444444444444 0.03611111111111111 0.11851851851851852
1 0.43333333333333335 0.44074074074074077 0.044444444444444446 0.14074074074074075
1 0.3972222222222222 0.3333333333333333 0.03333333333333333 0.1037037037037037
1 0.34305555555555556 0.337037037037037 0.030555555555555555 0.1037037037037037
1 0.7777777777777778 0.3425925925925926 0.03888888888888889 0.12222222222222222
1 0.8152777777777778 0.34629629629629627 0.03611111111111111 0.11481481481481481
1 0.24861111111111112 0.34444444444444444 0.03611111111111111 0.11851851851851852
1 0.43333333333333335 0.44074074074074077 0.044444444444444446 0.14074074074074075
1 0.3972222222222222 0.3333333333333333 0.03333333333333333 0.1037037037037037
1 0.34305555555555556 0.337037037037037 0.030555555555555555 0.1037037037037037
1 0.7777777777777778 0.3425925925925926 0.03888888888888889 0.12222222222222222
1 0.8152777777777778 0.34629629629629627 0.03611111111111111 0.11481481481481481
1 0.24861111111111112 0.34444444444444444 0.03611111111111111 0.11851851851851852
1 0.43333333333333335 0.44074074074074077 0.044444444444444446 0.14074074074074075
1 0.3972222222222222 0.3333333333333333 0.03333333333333333 0.1037037037037037
1 0.34305555555555556 0.337037037037037 0.030555555555555555 0.1037037037037037
