1 0.5236111111111111 0.40185185185185185 0.041666666666666664 0.15925925925925927
1 0.6861111111111111 0.30185185185185187 0.03333333333333333 0.11481481481481481
1 0.5652777777777778 0.3925925925925926 0.041666666666666664 0.14814814814814814
1 0.7083333333333334 0.3037037037037037 0.03333333333333333 0.1111111111111111
1 0.5236111111111111 0.40185185185185185 0.041666666666666664 0.15925925925925927
1 0.6861111111111111 0.30185185185185187 0.03333333333333333 0.11481481481481481
1 0.5652777777777778 0.3925925925925926 0.041666666666666664 0.14814814814814814
1 0.7083333333333334 0.3037037037037037 0.03333333333333333 0.1111111111111111
1 0.5236111111111111 0.40185185185185185 0.041666666666666664 0.15925925925925927
1 0.6861111111111111 0.30185185185185187 0.03333333333333333 0.11481481481481481
1 0.5652777777777778 0.3925925925925926 0.041666666666666664 0.14814814814814814
1 0.7083333333333334 0.3037037037037037 0.03333333333333333 0.1111111111111111
