1 0.3402777777777778 0.8666666666666667 0.08055555555555556 0.25925925925925924
1 0.3402777777777778 0.29814814814814816 0.03611111111111111 0.11481481481481481
1 0.8055555555555556 0.3925925925925926 0.044444444444444446 0.13333333333333333
