1 0.19027777777777777 0.34814814814814815 0.030555555555555555 0.11851851851851852
1 0.2638888888888889 0.7611111111111111 0.07222222222222222 0.25555555555555554
1 0.8513888888888889 0.6166666666666667 0.041666666666666664 0.18888888888888888
1 0.35138888888888886 0.7611111111111111 0.08055555555555556 0.24814814814814815
1 0.7986111111111112 0.3592592592592593 0.041666666666666664 0.13333333333333333
