1 0.6777777777777778 0.45555555555555555 0.044444444444444446 0.14814814814814814
1 0.7805555555555556 0.28888888888888886 0.03333333333333333 0.1111111111111111
1 0.28194444444444444 0.34629629629629627 0.041666666666666664 0.10740740740740741
1 0.6777777777777778 0.45555555555555555 0.044444444444444446 0.14814814814814814
1 0.7805555555555556 0.28888888888888886 0.03333333333333333 0.1111111111111111
1 0.28194444444444444 0.34629629629629627 0.041666666666666664 0.10740740740740741
1 0.6777777777777778 0.45555555555555555 0.044444444444444446 0.14814814814814814
1 0.7805555555555556 0.28888888888888886 0.03333333333333333 0.1111111111111111
1 0.28194444444444444 0.34629629629629627 0.041666666666666664 0.10740740740740741
