1 0.6597222222222222 0.35185185185185186 0.03611111111111111 0.11851851851851852
1 0.8138888888888889 0.4925925925925926 0.044444444444444446 0.14074074074074075
1 0.38472222222222224 0.4537037037037037 0.041666666666666664 0.15925925925925927
1 0.6597222222222222 0.35185185185185186 0.03611111111111111 0.11851851851851852
1 0.8138888888888889 0.4925925925925926 0.044444444444444446 0.14074074074074075
1 0.38472222222222224 0.4537037037037037 0.041666666666666664 0.15925925925925927
1 0.6597222222222222 0.35185185185185186 0.03611111111111111 0.11851851851851852
1 0.8138888888888889 0.4925925925925926 0.044444444444444446 0.14074074074074075
1 0.38472222222222224 0.4537037037037037 0.041666666666666664 0.15925925925925927
