1 0.675 0.34814814814814815 0.03333333333333333 0.1259259259259259
1 0.8333333333333334 0.4425925925925926 0.044444444444444446 0.15925925925925927
1 0.4125 0.37407407407407406 0.04722222222222222 0.1111111111111111
