1 0.6263888888888889 0.4462962962962963 0.041666666666666664 0.14444444444444443
1 0.8097222222222222 0.2814814814814815 0.030555555555555555 0.1037037037037037
1 0.8944444444444445 0.22777777777777777 0.022222222222222223 0.07777777777777778
1 0.7291666666666666 0.4425925925925926 0.041666666666666664 0.15185185185185185
1 0.6263888888888889 0.4462962962962963 0.041666666666666664 0.14444444444444443
1 0.8097222222222222 0.2814814814814815 0.030555555555555555 0.1037037037037037
1 0.8944444444444445 0.22777777777777777 0.022222222222222223 0.07777777777777778
1 0.7291666666666666 0.4425925925925926 0.041666666666666664 0.15185185185185185
1 0.6263888888888889 0.4462962962962963 0.041666666666666664 0.14444444444444443
1 0.8097222222222222 0.2814814814814815 0.030555555555555555 0.1037037037037037
1 0.8944444444444445 0.22777777777777777 0.022222222222222223 0.07777777777777778
1 0.7291666666666666 0.4425925925925926 0.041666666666666664 0.15185185185185185
