1 0.8541666666666666 0.6185185185185185 0.041666666666666664 0.17777777777777778
1 0.6152777777777778 0.6222222222222222 0.05277777777777778 0.1925925925925926
1 0.4 0.8740740740740741 0.08333333333333333 0.2518518518518518
1 0.7583333333333333 0.4185185185185185 0.044444444444444446 0.14814814814814814
1 0.8541666666666666 0.6166666666666667 0.041666666666666664 0.17407407407407408
1 0.8861111111111111 0.44074074074074077 0.044444444444444446 0.1259259259259259
1 0.39166666666666666 0.8685185185185185 0.07777777777777778 0.25555555555555554
1 0.6041666666666666 0.6259259259259259 0.04722222222222222 0.2
1 0.7625 0.42592592592592593 0.04722222222222222 0.14074074074074075
