1 0.5041666666666667 0.38333333333333336 0.041666666666666664 0.13703703703703704
1 0.7152777777777778 0.44814814814814813 0.041666666666666664 0.15555555555555556
1 0.6722222222222223 0.4537037037037037 0.044444444444444446 0.15185185185185185
1 0.5041666666666667 0.38333333333333336 0.041666666666666664 0.13703703703703704
1 0.7152777777777778 0.44814814814814813 0.041666666666666664 0.15555555555555556
1 0.6722222222222223 0.4537037037037037 0.044444444444444446 0.15185185185185185
1 0.5041666666666667 0.38333333333333336 0.041666666666666664 0.13703703703703704
1 0.7152777777777778 0.44814814814814813 0.041666666666666664 0.15555555555555556
1 0.6722222222222223 0.4537037037037037 0.044444444444444446 0.15185185185185185
