1 0.9263888888888889 0.5462962962962963 0.058333333333333334 0.1814814814814815
1 0.5027777777777778 0.3962962962962963 0.03888888888888889 0.14814814814814814
1 0.9263888888888889 0.5462962962962963 0.058333333333333334 0.1814814814814815
1 0.5027777777777778 0.3962962962962963 0.03888888888888889 0.14814814814814814
1 0.9263888888888889 0.5462962962962963 0.058333333333333334 0.1814814814814815
1 0.5027777777777778 0.3962962962962963 0.03888888888888889 0.14814814814814814
