1 0.8555555555555555 0.6166666666666667 0.044444444444444446 0.1814814814814815
1 0.29444444444444445 0.7648148148148148 0.08888888888888889 0.27037037037037037
1 0.14305555555555555 0.35185185185185186 0.030555555555555555 0.11851851851851852
1 0.7791666666666667 0.3425925925925926 0.03611111111111111 0.13703703703703704
