1 0.7125 0.3055555555555556 0.03611111111111111 0.11481481481481481
1 0.5625 0.39814814814814814 0.058333333333333334 0.16666666666666666
1 0.2611111111111111 0.1425925925925926 0.022222222222222223 0.06296296296296296
1 0.5097222222222222 0.37962962962962965 0.041666666666666664 0.13703703703703704
1 0.7125 0.3055555555555556 0.03611111111111111 0.11481481481481481
1 0.5625 0.39814814814814814 0.058333333333333334 0.16666666666666666
1 0.2611111111111111 0.1425925925925926 0.022222222222222223 0.06296296296296296
1 0.5097222222222222 0.37962962962962965 0.041666666666666664 0.13703703703703704
1 0.7125 0.3055555555555556 0.03611111111111111 0.11481481481481481
1 0.5625 0.39814814814814814 0.058333333333333334 0.16666666666666666
1 0.2611111111111111 0.1425925925925926 0.022222222222222223 0.06296296296296296
1 0.5097222222222222 0.37962962962962965 0.041666666666666664 0.13703703703703704
