1 0.7847222222222222 0.34814814814814815 0.041666666666666664 0.13333333333333333
1 0.8541666666666666 0.6166666666666667 0.041666666666666664 0.1814814814814815
1 0.30416666666666664 0.7555555555555555 0.075 0.2518518518518518
1 0.15555555555555556 0.35 0.03333333333333333 0.11481481481481481
