1 0.7097222222222223 0.337037037037037 0.03611111111111111 0.11851851851851852
1 0.7555555555555555 0.5574074074074075 0.05 0.17407407407407408
1 0.38055555555555554 0.37037037037037035 0.044444444444444446 0.1259259259259259
