1 0.32916666666666666 0.34629629629629627 0.04722222222222222 0.12222222222222222
1 0.5902777777777778 0.5166666666666667 0.04722222222222222 0.16666666666666666
1 0.8736111111111111 0.5592592592592592 0.05277777777777778 0.1925925925925926
1 0.06666666666666667 0.3611111111111111 0.03888888888888889 0.11481481481481481
1 0.8027777777777778 0.4166666666666667 0.03888888888888889 0.12962962962962962
1 0.8694444444444445 0.25925925925925924 0.027777777777777776 0.08148148148148149
1 0.32916666666666666 0.34629629629629627 0.04722222222222222 0.12222222222222222
1 0.5902777777777778 0.5166666666666667 0.04722222222222222 0.16666666666666666
1 0.8736111111111111 0.5592592592592592 0.05277777777777778 0.1925925925925926
1 0.06666666666666667 0.3611111111111111 0.03888888888888889 0.11481481481481481
1 0.8027777777777778 0.4166666666666667 0.03888888888888889 0.12962962962962962
1 0.8694444444444445 0.25925925925925924 0.027777777777777776 0.08148148148148149
1 0.32916666666666666 0.34629629629629627 0.04722222222222222 0.12222222222222222
1 0.5902777777777778 0.5166666666666667 0.04722222222222222 0.16666666666666666
1 0.8736111111111111 0.5592592592592592 0.05277777777777778 0.1925925925925926
1 0.06666666666666667 0.3611111111111111 0.03888888888888889 0.11481481481481481
1 0.8027777777777778 0.4166666666666667 0.03888888888888889 0.12962962962962962
1 0.8694444444444445 0.25925925925925924 0.027777777777777776 0.08148148148148149
