1 0.7583333333333333 0.8796296296296297 0.09444444444444444 0.24074074074074073
1 0.8208333333333333 0.5574074074074075 0.05277777777777778 0.15925925925925927
1 0.33194444444444443 0.3814814814814815 0.03611111111111111 0.11851851851851852
1 0.6791666666666667 0.45185185185185184 0.04722222222222222 0.16296296296296298
1 0.9375 0.6555555555555556 0.058333333333333334 0.2
