1 0.9652777777777778 0.5185185185185185 0.05277777777777778 0.16296296296296298
1 0.46111111111111114 0.37222222222222223 0.05555555555555555 0.12222222222222222
1 0.775 0.43148148148148147 0.044444444444444446 0.13703703703703704
