1 0.7555555555555555 0.3888888888888889 0.03888888888888889 0.15555555555555556
1 0.5083333333333333 0.3851851851851852 0.03333333333333333 0.1259259259259259
1 0.375 0.37592592592592594 0.03333333333333333 0.11481481481481481
1 0.6125 0.362962962962963 0.030555555555555555 0.1111111111111111
1 0.7555555555555555 0.3888888888888889 0.03888888888888889 0.15555555555555556
1 0.5083333333333333 0.3851851851851852 0.03333333333333333 0.1259259259259259
1 0.375 0.37592592592592594 0.03333333333333333 0.11481481481481481
1 0.6125 0.362962962962963 0.030555555555555555 0.1111111111111111
1 0.7555555555555555 0.3888888888888889 0.03888888888888889 0.15555555555555556
1 0.5083333333333333 0.3851851851851852 0.03333333333333333 0.1259259259259259
1 0.375 0.37592592592592594 0.03333333333333333 0.11481481481481481
1 0.6125 0.362962962962963 0.030555555555555555 0.1111111111111111
