1 0.6652777777777777 0.34444444444444444 0.041666666666666664 0.13333333333333333
1 0.23472222222222222 0.3333333333333333 0.041666666666666664 0.1111111111111111
1 0.38472222222222224 0.35 0.041666666666666664 0.12222222222222222
