1 0.24305555555555555 0.39444444444444443 0.04722222222222222 0.14444444444444443
1 0.4375 0.34444444444444444 0.03611111111111111 0.1111111111111111
1 0.6444444444444445 0.38333333333333336 0.03333333333333333 0.12962962962962962
1 0.32916666666666666 0.37592592592592594 0.03611111111111111 0.12222222222222222
