1 0.2916666666666667 0.774074074074074 0.07777777777777778 0.24444444444444444
1 0.20416666666666666 0.35555555555555557 0.030555555555555555 0.11851851851851852
1 0.35833333333333334 0.7759259259259259 0.07777777777777778 0.24814814814814815
1 0.8541666666666666 0.6055555555555555 0.04722222222222222 0.1814814814814815
