1 0.6666666666666666 0.39444444444444443 0.03888888888888889 0.12962962962962962
1 0.5180555555555556 0.39814814814814814 0.03611111111111111 0.14444444444444443
1 0.8263888888888888 0.24259259259259258 0.03611111111111111 0.1
1 0.13472222222222222 0.1814814814814815 0.019444444444444445 0.06666666666666667
1 0.8597222222222223 0.49074074074074076 0.041666666666666664 0.16666666666666666
1 0.5625 0.39444444444444443 0.041666666666666664 0.14444444444444443
1 0.6666666666666666 0.39444444444444443 0.03888888888888889 0.12962962962962962
1 0.5180555555555556 0.39814814814814814 0.03611111111111111 0.14444444444444443
1 0.8263888888888888 0.24259259259259258 0.03611111111111111 0.1
1 0.13472222222222222 0.1814814814814815 0.019444444444444445 0.06666666666666667
1 0.8597222222222223 0.49074074074074076 0.041666666666666664 0.16666666666666666
1 0.5625 0.39444444444444443 0.041666666666666664 0.14444444444444443
1 0.6666666666666666 0.39444444444444443 0.03888888888888889 0.12962962962962962
1 0.5180555555555556 0.39814814814814814 0.03611111111111111 0.14444444444444443
1 0.8263888888888888 0.24259259259259258 0.03611111111111111 0.1
1 0.13472222222222222 0.1814814814814815 0.019444444444444445 0.06666666666666667
1 0.8597222222222223 0.49074074074074076 0.041666666666666664 0.16666666666666666
1 0.5625 0.39444444444444443 0.041666666666666664 0.14444444444444443
