1 0.8041666666666667 0.5685185185185185 0.04722222222222222 0.18888888888888888
1 0.6208333333333333 0.39814814814814814 0.03611111111111111 0.13703703703703704
1 0.7833333333333333 0.35555555555555557 0.027777777777777776 0.14074074074074075
1 0.29444444444444445 0.3351851851851852 0.03333333333333333 0.12222222222222222
1 0.3347222222222222 0.3314814814814815 0.03611111111111111 0.11481481481481481
