1 0.7625 0.48703703703703705 0.041666666666666664 0.14444444444444443
1 0.4083333333333333 0.44074074074074077 0.044444444444444446 0.14074074074074075
1 0.6402777777777777 0.35 0.041666666666666664 0.12222222222222222
1 0.7625 0.48703703703703705 0.041666666666666664 0.14444444444444443
1 0.4083333333333333 0.44074074074074077 0.044444444444444446 0.14074074074074075
1 0.6402777777777777 0.35 0.041666666666666664 0.12222222222222222
1 0.7625 0.48703703703703705 0.041666666666666664 0.14444444444444443
1 0.4083333333333333 0.44074074074074077 0.044444444444444446 0.14074074074074075
1 0.6402777777777777 0.35 0.041666666666666664 0.12222222222222222
