1 0.18055555555555555 0.17037037037037037 0.016666666666666666 0.06666666666666667
1 0.5180555555555556 0.39814814814814814 0.03611111111111111 0.14444444444444443
1 0.18055555555555555 0.17037037037037037 0.016666666666666666 0.06666666666666667
1 0.5180555555555556 0.39814814814814814 0.03611111111111111 0.14444444444444443
1 0.18055555555555555 0.17037037037037037 0.016666666666666666 0.06666666666666667
1 0.5180555555555556 0.39814814814814814 0.03611111111111111 0.14444444444444443
