1 0.6097222222222223 0.4425925925925926 0.041666666666666664 0.15925925925925927
1 0.7194444444444444 0.4648148148148148 0.03888888888888889 0.14444444444444443
1 0.9013888888888889 0.6203703703703703 0.05277777777777778 0.2111111111111111
