1 0.7777777777777778 0.2722222222222222 0.03333333333333333 0.10740740740740741
1 0.5166666666666667 0.38333333333333336 0.03333333333333333 0.13703703703703704
1 0.20277777777777778 0.1574074074074074 0.016666666666666666 0.05555555555555555
1 0.7777777777777778 0.2722222222222222 0.03333333333333333 0.10740740740740741
1 0.5166666666666667 0.38333333333333336 0.03333333333333333 0.13703703703703704
1 0.20277777777777778 0.1574074074074074 0.016666666666666666 0.05555555555555555
1 0.7777777777777778 0.2722222222222222 0.03333333333333333 0.10740740740740741
1 0.5166666666666667 0.38333333333333336 0.03333333333333333 0.13703703703703704
1 0.20277777777777778 0.1574074074074074 0.016666666666666666 0.05555555555555555
