1 0.6555555555555556 0.3611111111111111 0.03888888888888889 0.12222222222222222
1 0.44166666666666665 0.3611111111111111 0.05 0.10740740740740741
1 0.7958333333333333 0.4425925925925926 0.041666666666666664 0.15185185185185185
