1 0.6972222222222222 0.3388888888888889 0.03333333333333333 0.12962962962962962
1 0.43194444444444446 0.3611111111111111 0.03611111111111111 0.12222222222222222
1 0.2222222222222222 0.34629629629629627 0.03333333333333333 0.10740740740740741
1 0.6138888888888889 0.3314814814814815 0.027777777777777776 0.10740740740740741
