1 0.6986111111111111 0.43703703703703706 0.03611111111111111 0.1259259259259259
1 0.8375 0.5111111111111111 0.04722222222222222 0.18518518518518517
1 0.6458333333333334 0.4388888888888889 0.03611111111111111 0.12962962962962962
1 0.5166666666666667 0.37777777777777777 0.05 0.14074074074074075
1 0.6986111111111111 0.43703703703703706 0.03611111111111111 0.1259259259259259
1 0.8375 0.5111111111111111 0.04722222222222222 0.18518518518518517
1 0.6458333333333334 0.4388888888888889 0.03611111111111111 0.12962962962962962
1 0.5166666666666667 0.37777777777777777 0.05 0.14074074074074075
1 0.6986111111111111 0.43703703703703706 0.03611111111111111 0.1259259259259259
1 0.8375 0.5111111111111111 0.04722222222222222 0.18518518518518517
1 0.6458333333333334 0.4388888888888889 0.03611111111111111 0.12962962962962962
1 0.5166666666666667 0.37777777777777777 0.05 0.14074074074074075
