1 0.7569444444444444 0.40925925925925927 0.03611111111111111 0.14444444444444443
1 0.5069444444444444 0.3907407407407407 0.041666666666666664 0.12962962962962962
1 0.6166666666666667 0.37962962962962965 0.03333333333333333 0.12222222222222222
1 0.7569444444444444 0.40925925925925927 0.03611111111111111 0.14444444444444443
1 0.5069444444444444 0.3907407407407407 0.041666666666666664 0.12962962962962962
1 0.6166666666666667 0.37962962962962965 0.03333333333333333 0.12222222222222222
1 0.7569444444444444 0.40925925925925927 0.03611111111111111 0.14444444444444443
1 0.5069444444444444 0.3907407407407407 0.041666666666666664 0.12962962962962962
1 0.6166666666666667 0.37962962962962965 0.03333333333333333 0.12222222222222222
