1 0.35138888888888886 0.34814814814814815 0.03611111111111111 0.1259259259259259
1 0.9097222222222222 0.5685185185185185 0.058333333333333334 0.1814814814814815
1 0.8680555555555556 0.2574074074074074 0.030555555555555555 0.08518518518518518
1 0.06388888888888888 0.362962962962963 0.03888888888888889 0.11851851851851852
1 0.35138888888888886 0.34814814814814815 0.03611111111111111 0.1259259259259259
1 0.9097222222222222 0.5685185185185185 0.058333333333333334 0.1814814814814815
1 0.8680555555555556 0.2574074074074074 0.030555555555555555 0.08518518518518518
1 0.06388888888888888 0.362962962962963 0.03888888888888889 0.11851851851851852
1 0.35138888888888886 0.34814814814814815 0.03611111111111111 0.1259259259259259
1 0.9097222222222222 0.5685185185185185 0.058333333333333334 0.1814814814814815
1 0.8680555555555556 0.2574074074074074 0.030555555555555555 0.08518518518518518
1 0.06388888888888888 0.362962962962963 0.03888888888888889 0.11851851851851852
