1 0.7333333333333333 0.4148148148148148 0.03888888888888889 0.15555555555555556
1 0.9444444444444444 0.512962962962963 0.044444444444444446 0.14444444444444443
1 0.9833333333333333 0.5111111111111111 0.03333333333333333 0.13333333333333333
1 0.7333333333333333 0.4148148148148148 0.03888888888888889 0.15555555555555556
1 0.9444444444444444 0.512962962962963 0.044444444444444446 0.14444444444444443
1 0.9833333333333333 0.5111111111111111 0.03333333333333333 0.13333333333333333
