1 0.6569444444444444 0.45555555555555555 0.041666666666666664 0.14814814814814814
1 0.5013888888888889 0.44814814814814813 0.04722222222222222 0.14814814814814814
1 0.6902777777777778 0.4444444444444444 0.03611111111111111 0.14074074074074075
