1 0.825 0.5074074074074074 0.05 0.16296296296296298
1 0.5152777777777777 0.39444444444444443 0.041666666666666664 0.15925925925925927
1 0.825 0.5074074074074074 0.05 0.16296296296296298
1 0.5152777777777777 0.39444444444444443 0.041666666666666664 0.15925925925925927
1 0.825 0.5074074074074074 0.05 0.16296296296296298
1 0.5152777777777777 0.39444444444444443 0.041666666666666664 0.15925925925925927
