1 0.49444444444444446 0.8074074074074075 0.07222222222222222 0.25925925925925924
1 0.8347222222222223 0.49444444444444446 0.04722222222222222 0.16666666666666666
1 0.7444444444444445 0.5518518518518518 0.05 0.17037037037037037
1 0.1736111111111111 0.3296296296296296 0.03611111111111111 0.14074074074074075
