1 0.8236111111111111 0.45740740740740743 0.03611111111111111 0.13703703703703704
1 0.17777777777777778 0.1685185185185185 0.016666666666666666 0.06296296296296296
1 0.5138888888888888 0.3907407407407407 0.03333333333333333 0.12962962962962962
1 0.9805555555555555 0.5166666666666667 0.03333333333333333 0.15925925925925927
1 0.7680555555555556 0.4351851851851852 0.041666666666666664 0.11481481481481481
1 0.8236111111111111 0.45740740740740743 0.03611111111111111 0.13703703703703704
1 0.17777777777777778 0.1685185185185185 0.016666666666666666 0.06296296296296296
1 0.5138888888888888 0.3907407407407407 0.03333333333333333 0.12962962962962962
1 0.9805555555555555 0.5166666666666667 0.03333333333333333 0.15925925925925927
1 0.7680555555555556 0.4351851851851852 0.041666666666666664 0.11481481481481481
1 0.8236111111111111 0.45740740740740743 0.03611111111111111 0.13703703703703704
1 0.17777777777777778 0.1685185185185185 0.016666666666666666 0.06296296296296296
1 0.5138888888888888 0.3907407407407407 0.03333333333333333 0.12962962962962962
1 0.9805555555555555 0.5166666666666667 0.03333333333333333 0.15925925925925927
1 0.7680555555555556 0.4351851851851852 0.041666666666666664 0.11481481481481481
