1 0.5027777777777778 0.3888888888888889 0.03888888888888889 0.1259259259259259
1 0.6541666666666667 0.43148148148148147 0.030555555555555555 0.12962962962962962
1 0.7555555555555555 0.2851851851851852 0.03333333333333333 0.1037037037037037
1 0.2388888888888889 0.14629629629629629 0.022222222222222223 0.06296296296296296
1 0.5027777777777778 0.3888888888888889 0.03888888888888889 0.1259259259259259
1 0.6541666666666667 0.43148148148148147 0.030555555555555555 0.12962962962962962
1 0.7555555555555555 0.2851851851851852 0.03333333333333333 0.1037037037037037
1 0.2388888888888889 0.14629629629629629 0.022222222222222223 0.06296296296296296
1 0.5027777777777778 0.3888888888888889 0.03888888888888889 0.1259259259259259
1 0.6541666666666667 0.43148148148148147 0.030555555555555555 0.12962962962962962
1 0.7555555555555555 0.2851851851851852 0.03333333333333333 0.1037037037037037
1 0.2388888888888889 0.14629629629629629 0.022222222222222223 0.06296296296296296
