1 0.5041666666666667 0.3888888888888889 0.041666666666666664 0.1259259259259259
1 0.7791666666666667 0.45185185185185184 0.04722222222222222 0.17037037037037037
1 0.6013888888888889 0.39814814814814814 0.03611111111111111 0.12962962962962962
1 0.39444444444444443 0.3574074074074074 0.03888888888888889 0.1
1 0.5041666666666667 0.3888888888888889 0.041666666666666664 0.1259259259259259
1 0.7791666666666667 0.45185185185185184 0.04722222222222222 0.17037037037037037
1 0.6013888888888889 0.39814814814814814 0.03611111111111111 0.12962962962962962
1 0.39444444444444443 0.3574074074074074 0.03888888888888889 0.1
1 0.5041666666666667 0.3888888888888889 0.041666666666666664 0.1259259259259259
1 0.7791666666666667 0.45185185185185184 0.04722222222222222 0.17037037037037037
1 0.6013888888888889 0.39814814814814814 0.03611111111111111 0.12962962962962962
1 0.39444444444444443 0.3574074074074074 0.03888888888888889 0.1
