1 0.8583333333333333 0.46111111111111114 0.044444444444444446 0.15925925925925927
1 0.1875 0.3333333333333333 0.030555555555555555 0.11851851851851852
1 0.225 0.34444444444444444 0.03333333333333333 0.11851851851851852
1 0.6972222222222222 0.5148148148148148 0.044444444444444446 0.14814814814814814
