1 0.5208333333333334 0.40185185185185185 0.041666666666666664 0.15925925925925927
1 0.6833333333333333 0.3055555555555556 0.03333333333333333 0.11481481481481481
1 0.5652777777777778 0.3925925925925926 0.041666666666666664 0.14814814814814814
1 0.7055555555555556 0.3074074074074074 0.03333333333333333 0.1111111111111111
1 0.5208333333333334 0.40185185185185185 0.041666666666666664 0.15925925925925927
1 0.6833333333333333 0.3055555555555556 0.03333333333333333 0.11481481481481481
1 0.5652777777777778 0.3925925925925926 0.041666666666666664 0.14814814814814814
1 0.7055555555555556 0.3074074074074074 0.03333333333333333 0.1111111111111111
1 0.5208333333333334 0.40185185185185185 0.041666666666666664 0.15925925925925927
1 0.6833333333333333 0.3055555555555556 0.03333333333333333 0.11481481481481481
1 0.5652777777777778 0.3925925925925926 0.041666666666666664 0.14814814814814814
1 0.7055555555555556 0.3074074074074074 0.03333333333333333 0.1111111111111111
