1 0.6583333333333333 0.4074074074074074 0.03888888888888889 0.15555555555555556
1 0.9222222222222223 0.4777777777777778 0.05 0.14814814814814814
1 0.6583333333333333 0.4074074074074074 0.03888888888888889 0.15555555555555556
1 0.9222222222222223 0.4777777777777778 0.05 0.14814814814814814
