1 0.9180555555555555 0.5444444444444444 0.058333333333333334 0.18518518518518517
1 0.5083333333333333 0.3962962962962963 0.03888888888888889 0.14814814814814814
1 0.9180555555555555 0.5444444444444444 0.058333333333333334 0.18518518518518517
1 0.5083333333333333 0.3962962962962963 0.03888888888888889 0.14814814814814814
1 0.9180555555555555 0.5444444444444444 0.058333333333333334 0.18518518518518517
1 0.5083333333333333 0.3962962962962963 0.03888888888888889 0.14814814814814814
