1 0.6763888888888889 0.4074074074074074 0.04722222222222222 0.15555555555555556
1 0.925 0.48333333333333334 0.05 0.15925925925925927
1 0.6763888888888889 0.4074074074074074 0.04722222222222222 0.15555555555555556
1 0.925 0.48333333333333334 0.05 0.15925925925925927
