1 0.27361111111111114 0.7666666666666667 0.10277777777777777 0.2962962962962963
1 0.8513888888888889 0.6166666666666667 0.041666666666666664 0.1814814814814815
1 0.12777777777777777 0.3537037037037037 0.03333333333333333 0.10740740740740741
1 0.775 0.337037037037037 0.03333333333333333 0.13333333333333333
