1 0.7263888888888889 0.3351851851851852 0.03611111111111111 0.11481481481481481
1 0.7819444444444444 0.5666666666666667 0.04722222222222222 0.1925925925925926
1 0.36666666666666664 0.3814814814814815 0.03888888888888889 0.11851851851851852
