1 0.46944444444444444 0.812962962962963 0.1111111111111111 0.27037037037037037
1 0.825 0.40555555555555556 0.03888888888888889 0.13703703703703704
1 0.6111111111111112 0.40185185185185185 0.03888888888888889 0.15185185185185185
1 0.24861111111111112 0.3611111111111111 0.03611111111111111 0.10740740740740741
