1 0.8722222222222222 0.43703703703703706 0.03888888888888889 0.13333333333333333
1 0.4486111111111111 0.43333333333333335 0.041666666666666664 0.13333333333333333
1 0.6402777777777777 0.34444444444444444 0.03611111111111111 0.1259259259259259
1 0.8722222222222222 0.43703703703703706 0.03888888888888889 0.13333333333333333
1 0.4486111111111111 0.43333333333333335 0.041666666666666664 0.13333333333333333
1 0.6402777777777777 0.34444444444444444 0.03611111111111111 0.1259259259259259
1 0.8722222222222222 0.43703703703703706 0.03888888888888889 0.13333333333333333
1 0.4486111111111111 0.43333333333333335 0.041666666666666664 0.13333333333333333
1 0.6402777777777777 0.34444444444444444 0.03611111111111111 0.1259259259259259
