1 0.1875 0.34814814814814815 0.030555555555555555 0.11851851851851852
1 0.2638888888888889 0.7611111111111111 0.07222222222222222 0.25555555555555554
1 0.8513888888888889 0.6166666666666667 0.041666666666666664 0.18888888888888888
1 0.3472222222222222 0.7555555555555555 0.07777777777777778 0.24444444444444444
1 0.7972222222222223 0.3574074074074074 0.03888888888888889 0.12962962962962962
