1 0.4222222222222222 0.3962962962962963 0.03888888888888889 0.13333333333333333
1 0.6638888888888889 0.3388888888888889 0.03333333333333333 0.11481481481481481
1 0.7680555555555556 0.3611111111111111 0.041666666666666664 0.15925925925925927
1 0.5138888888888888 0.387037037037037 0.03333333333333333 0.12962962962962962
1 0.4222222222222222 0.3962962962962963 0.03888888888888889 0.13333333333333333
1 0.6638888888888889 0.3388888888888889 0.03333333333333333 0.11481481481481481
1 0.7680555555555556 0.3611111111111111 0.041666666666666664 0.15925925925925927
1 0.5138888888888888 0.387037037037037 0.03333333333333333 0.12962962962962962
1 0.4222222222222222 0.3962962962962963 0.03888888888888889 0.13333333333333333
1 0.6638888888888889 0.3388888888888889 0.03333333333333333 0.11481481481481481
1 0.7680555555555556 0.3611111111111111 0.041666666666666664 0.15925925925925927
1 0.5138888888888888 0.387037037037037 0.03333333333333333 0.12962962962962962
