1 0.8180555555555555 0.4962962962962963 0.05277777777777778 0.15555555555555556
1 0.5166666666666667 0.3888888888888889 0.03888888888888889 0.14074074074074075
1 0.5611111111111111 0.40370370370370373 0.044444444444444446 0.16296296296296298
1 0.8180555555555555 0.4962962962962963 0.05277777777777778 0.15555555555555556
1 0.5166666666666667 0.3888888888888889 0.03888888888888889 0.14074074074074075
1 0.5611111111111111 0.40370370370370373 0.044444444444444446 0.16296296296296298
1 0.8180555555555555 0.4962962962962963 0.05277777777777778 0.15555555555555556
1 0.5166666666666667 0.3888888888888889 0.03888888888888889 0.14074074074074075
1 0.5611111111111111 0.40370370370370373 0.044444444444444446 0.16296296296296298
