1 0.7236111111111111 0.4462962962962963 0.03611111111111111 0.13703703703703704
1 0.8638888888888889 0.45185185185185184 0.044444444444444446 0.14814814814814814
1 0.775 0.2759259259259259 0.03333333333333333 0.10740740740740741
1 0.5180555555555556 0.387037037037037 0.03611111111111111 0.13703703703703704
1 0.2111111111111111 0.1648148148148148 0.016666666666666666 0.06296296296296296
1 0.7236111111111111 0.4462962962962963 0.03611111111111111 0.13703703703703704
1 0.8638888888888889 0.45185185185185184 0.044444444444444446 0.14814814814814814
1 0.775 0.2759259259259259 0.03333333333333333 0.10740740740740741
1 0.5180555555555556 0.387037037037037 0.03611111111111111 0.13703703703703704
1 0.2111111111111111 0.1648148148148148 0.016666666666666666 0.06296296296296296
1 0.7236111111111111 0.4462962962962963 0.03611111111111111 0.13703703703703704
1 0.8638888888888889 0.45185185185185184 0.044444444444444446 0.14814814814814814
1 0.775 0.2759259259259259 0.03333333333333333 0.10740740740740741
1 0.5180555555555556 0.387037037037037 0.03611111111111111 0.13703703703703704
1 0.2111111111111111 0.1648148148148148 0.016666666666666666 0.06296296296296296
