1 0.8652777777777778 0.42962962962962964 0.03611111111111111 0.1259259259259259
1 0.8513888888888889 0.6166666666666667 0.041666666666666664 0.17407407407407408
1 0.3763888888888889 0.8685185185185185 0.08055555555555556 0.25555555555555554
1 0.775 0.43333333333333335 0.044444444444444446 0.14074074074074075
