1 0.12222222222222222 0.5555555555555556 0.05 0.17037037037037037
1 0.49166666666666664 0.34074074074074073 0.044444444444444446 0.1259259259259259
1 0.8333333333333334 0.45 0.05555555555555555 0.15185185185185185
1 0.3013888888888889 0.3962962962962963 0.05277777777777778 0.16296296296296298
