1 0.2013888888888889 0.3333333333333333 0.030555555555555555 0.11851851851851852
1 0.4875 0.46111111111111114 0.04722222222222222 0.15925925925925927
1 0.35694444444444445 0.3592592592592593 0.03611111111111111 0.13333333333333333
1 0.8111111111111111 0.31851851851851853 0.027777777777777776 0.1037037037037037
1 0.40694444444444444 0.337037037037037 0.025 0.1037037037037037
1 0.2013888888888889 0.3333333333333333 0.030555555555555555 0.11851851851851852
1 0.4875 0.46111111111111114 0.04722222222222222 0.15925925925925927
1 0.35694444444444445 0.3592592592592593 0.03611111111111111 0.13333333333333333
1 0.8111111111111111 0.31851851851851853 0.027777777777777776 0.1037037037037037
1 0.40694444444444444 0.337037037037037 0.025 0.1037037037037037
1 0.2013888888888889 0.3333333333333333 0.030555555555555555 0.11851851851851852
1 0.4875 0.46111111111111114 0.04722222222222222 0.15925925925925927
1 0.35694444444444445 0.3592592592592593 0.03611111111111111 0.13333333333333333
1 0.8111111111111111 0.31851851851851853 0.027777777777777776 0.1037037037037037
1 0.40694444444444444 0.337037037037037 0.025 0.1037037037037037
