1 0.7138888888888889 0.2962962962962963 0.03333333333333333 0.1111111111111111
1 0.5013888888888889 0.37592592592592594 0.041666666666666664 0.12962962962962962
1 0.25555555555555554 0.1425925925925926 0.022222222222222223 0.06296296296296296
1 0.7138888888888889 0.2962962962962963 0.03333333333333333 0.1111111111111111
1 0.5013888888888889 0.37592592592592594 0.041666666666666664 0.12962962962962962
1 0.25555555555555554 0.1425925925925926 0.022222222222222223 0.06296296296296296
1 0.7138888888888889 0.2962962962962963 0.03333333333333333 0.1111111111111111
1 0.5013888888888889 0.37592592592592594 0.041666666666666664 0.12962962962962962
1 0.25555555555555554 0.1425925925925926 0.022222222222222223 0.06296296296296296
