1 0.5 0.3925925925925926 0.03888888888888889 0.1259259259259259
1 0.7291666666666666 0.28703703703703703 0.030555555555555555 0.10740740740740741
1 0.8361111111111111 0.3 0.03333333333333333 0.11851851851851852
1 0.6291666666666667 0.43333333333333335 0.041666666666666664 0.1259259259259259
1 0.75 0.29259259259259257 0.03333333333333333 0.1037037037037037
1 0.5 0.3925925925925926 0.03888888888888889 0.1259259259259259
1 0.7291666666666666 0.28703703703703703 0.030555555555555555 0.10740740740740741
1 0.8361111111111111 0.3 0.03333333333333333 0.11851851851851852
1 0.6291666666666667 0.43333333333333335 0.041666666666666664 0.1259259259259259
1 0.75 0.29259259259259257 0.03333333333333333 0.1037037037037037
1 0.5 0.3925925925925926 0.03888888888888889 0.1259259259259259
1 0.7291666666666666 0.28703703703703703 0.030555555555555555 0.10740740740740741
1 0.8361111111111111 0.3 0.03333333333333333 0.11851851851851852
1 0.6291666666666667 0.43333333333333335 0.041666666666666664 0.1259259259259259
1 0.75 0.29259259259259257 0.03333333333333333 0.1037037037037037
