1 0.2388888888888889 0.34629629629629627 0.03888888888888889 0.10740740740740741
1 0.7013888888888888 0.4685185185185185 0.041666666666666664 0.15185185185185185
1 0.4375 0.42962962962962964 0.03611111111111111 0.1259259259259259
1 0.8277777777777777 0.4648148148148148 0.044444444444444446 0.15185185185185185
1 0.75 0.29444444444444445 0.03333333333333333 0.11481481481481481
1 0.2388888888888889 0.34629629629629627 0.03888888888888889 0.10740740740740741
1 0.7013888888888888 0.4685185185185185 0.041666666666666664 0.15185185185185185
1 0.4375 0.42962962962962964 0.03611111111111111 0.1259259259259259
1 0.8277777777777777 0.4648148148148148 0.044444444444444446 0.15185185185185185
1 0.75 0.29444444444444445 0.03333333333333333 0.11481481481481481
1 0.2388888888888889 0.34629629629629627 0.03888888888888889 0.10740740740740741
1 0.7013888888888888 0.4685185185185185 0.041666666666666664 0.15185185185185185
1 0.4375 0.42962962962962964 0.03611111111111111 0.1259259259259259
1 0.8277777777777777 0.4648148148148148 0.044444444444444446 0.15185185185185185
1 0.75 0.29444444444444445 0.03333333333333333 0.11481481481481481
