1 0.8513888888888889 0.6111111111111112 0.041666666666666664 0.17777777777777778
1 0.29444444444444445 0.7592592592592593 0.08888888888888889 0.26666666666666666
1 0.1388888888888889 0.34814814814814815 0.027777777777777776 0.11851851851851852
1 0.775 0.337037037037037 0.03333333333333333 0.13333333333333333
