1 0.3638888888888889 0.3907407407407407 0.03333333333333333 0.11481481481481481
1 0.9125 0.8851851851851852 0.10277777777777777 0.22962962962962963
1 0.7222222222222222 0.4722222222222222 0.044444444444444446 0.17407407407407408
1 0.8152777777777778 0.5555555555555556 0.04722222222222222 0.17037037037037037
1 0.8583333333333333 0.6222222222222222 0.05555555555555555 0.18518518518518517
