1 0.6625 0.34629629629629627 0.030555555555555555 0.12222222222222222
1 0.2388888888888889 0.3314814814814815 0.03888888888888889 0.10740740740740741
1 0.6055555555555555 0.5055555555555555 0.03888888888888889 0.16666666666666666
