1 0.7291666666666666 0.35 0.030555555555555555 0.11481481481481481
1 0.30277777777777776 0.3351851851851852 0.03888888888888889 0.11481481481481481
1 0.6319444444444444 0.37962962962962965 0.03611111111111111 0.12222222222222222
