1 0.6611111111111111 0.34074074074074073 0.03888888888888889 0.13333333333333333
1 0.4027777777777778 0.35185185185185186 0.03333333333333333 0.1259259259259259
1 0.225 0.34444444444444444 0.03333333333333333 0.11851851851851852
