1 0.7111111111111111 0.337037037037037 0.03888888888888889 0.11851851851851852
1 0.7583333333333333 0.5592592592592592 0.05 0.17777777777777778
1 0.38055555555555554 0.37407407407407406 0.044444444444444446 0.1259259259259259
