1 0.5041666666666667 0.39814814814814814 0.041666666666666664 0.15185185185185185
1 0.7875 0.3314814814814815 0.03611111111111111 0.14444444444444443
1 0.6736111111111112 0.3074074074074074 0.03611111111111111 0.1037037037037037
1 0.5652777777777778 0.387037037037037 0.03611111111111111 0.12962962962962962
1 0.5041666666666667 0.39814814814814814 0.041666666666666664 0.15185185185185185
1 0.7875 0.3314814814814815 0.03611111111111111 0.14444444444444443
1 0.6736111111111112 0.3074074074074074 0.03611111111111111 0.1037037037037037
1 0.5652777777777778 0.387037037037037 0.03611111111111111 0.12962962962962962
1 0.5041666666666667 0.39814814814814814 0.041666666666666664 0.15185185185185185
1 0.7875 0.3314814814814815 0.03611111111111111 0.14444444444444443
1 0.6736111111111112 0.3074074074074074 0.03611111111111111 0.1037037037037037
1 0.5652777777777778 0.387037037037037 0.03611111111111111 0.12962962962962962
