1 0.7861111111111111 0.3592592592592593 0.03333333333333333 0.1259259259259259
1 0.24722222222222223 0.35185185185185186 0.03333333333333333 0.0962962962962963
1 0.7861111111111111 0.3592592592592593 0.03333333333333333 0.1259259259259259
1 0.24722222222222223 0.35185185185185186 0.03333333333333333 0.0962962962962963
1 0.7861111111111111 0.3592592592592593 0.03333333333333333 0.1259259259259259
1 0.24722222222222223 0.35185185185185186 0.03333333333333333 0.0962962962962963
