1 0.19722222222222222 0.3388888888888889 0.03888888888888889 0.12962962962962962
1 0.4777777777777778 0.8055555555555556 0.08333333333333333 0.26296296296296295
1 0.7236111111111111 0.5351851851851852 0.04722222222222222 0.15185185185185185
