1 0.8319444444444445 0.2759259259259259 0.041666666666666664 0.11481481481481481
1 0.45694444444444443 0.45555555555555555 0.05277777777777778 0.16296296296296298
1 0.7236111111111111 0.5092592592592593 0.05277777777777778 0.16666666666666666
1 0.6513888888888889 0.37777777777777777 0.041666666666666664 0.1259259259259259
1 0.2263888888888889 0.32407407407407407 0.03611111111111111 0.11481481481481481
1 0.06805555555555555 0.3648148148148148 0.03611111111111111 0.12222222222222222
1 0.8319444444444445 0.2759259259259259 0.041666666666666664 0.11481481481481481
1 0.45694444444444443 0.45555555555555555 0.05277777777777778 0.16296296296296298
1 0.7236111111111111 0.5092592592592593 0.05277777777777778 0.16666666666666666
1 0.6513888888888889 0.37777777777777777 0.041666666666666664 0.1259259259259259
1 0.2263888888888889 0.32407407407407407 0.03611111111111111 0.11481481481481481
1 0.06805555555555555 0.3648148148148148 0.03611111111111111 0.12222222222222222
1 0.8319444444444445 0.2759259259259259 0.041666666666666664 0.11481481481481481
1 0.45694444444444443 0.45555555555555555 0.05277777777777778 0.16296296296296298
1 0.7236111111111111 0.5092592592592593 0.05277777777777778 0.16666666666666666
1 0.6513888888888889 0.37777777777777777 0.041666666666666664 0.1259259259259259
1 0.2263888888888889 0.32407407407407407 0.03611111111111111 0.11481481481481481
1 0.06805555555555555 0.3648148148148148 0.03611111111111111 0.12222222222222222
