1 0.13194444444444445 0.3314814814814815 0.03611111111111111 0.1
1 0.8152777777777778 0.55 0.04722222222222222 0.15925925925925927
1 0.6652777777777777 0.32222222222222224 0.041666666666666664 0.13333333333333333
1 0.30694444444444446 0.40185185185185185 0.03611111111111111 0.10740740740740741
1 0.9333333333333333 0.5222222222222223 0.05 0.14814814814814814
1 0.13194444444444445 0.3314814814814815 0.03611111111111111 0.1
1 0.8152777777777778 0.55 0.04722222222222222 0.15925925925925927
1 0.6652777777777777 0.32222222222222224 0.041666666666666664 0.13333333333333333
1 0.30694444444444446 0.40185185185185185 0.03611111111111111 0.10740740740740741
1 0.9333333333333333 0.5222222222222223 0.05 0.14814814814814814
1 0.13194444444444445 0.3314814814814815 0.03611111111111111 0.1
1 0.8152777777777778 0.55 0.04722222222222222 0.15925925925925927
1 0.6652777777777777 0.32222222222222224 0.041666666666666664 0.13333333333333333
1 0.30694444444444446 0.40185185185185185 0.03611111111111111 0.10740740740740741
1 0.9333333333333333 0.5222222222222223 0.05 0.14814814814814814
