1 0.375 0.4 0.05 0.14074074074074075
1 0.8263888888888888 0.29814814814814816 0.030555555555555555 0.1
1 0.7902777777777777 0.2851851851851852 0.025 0.1111111111111111
1 0.375 0.4 0.05 0.14074074074074075
1 0.8263888888888888 0.29814814814814816 0.030555555555555555 0.1
1 0.7902777777777777 0.2851851851851852 0.025 0.1111111111111111
1 0.375 0.4 0.05 0.14074074074074075
1 0.8263888888888888 0.29814814814814816 0.030555555555555555 0.1
1 0.7902777777777777 0.2851851851851852 0.025 0.1111111111111111
