1 0.6625 0.40555555555555556 0.03611111111111111 0.12222222222222222
1 0.7180555555555556 0.48333333333333334 0.05277777777777778 0.17407407407407408
1 0.45416666666666666 0.44074074074074077 0.041666666666666664 0.13333333333333333
