1 0.7597222222222222 0.5111111111111111 0.041666666666666664 0.16296296296296298
1 0.8861111111111111 0.49444444444444446 0.044444444444444446 0.15925925925925927
1 0.35694444444444445 0.4148148148148148 0.041666666666666664 0.1259259259259259
1 0.1736111111111111 0.3314814814814815 0.030555555555555555 0.09259259259259259
1 0.6986111111111111 0.31666666666666665 0.041666666666666664 0.11481481481481481
1 0.7597222222222222 0.5111111111111111 0.041666666666666664 0.16296296296296298
1 0.8861111111111111 0.49444444444444446 0.044444444444444446 0.15925925925925927
1 0.35694444444444445 0.4148148148148148 0.041666666666666664 0.1259259259259259
1 0.1736111111111111 0.3314814814814815 0.030555555555555555 0.09259259259259259
1 0.6986111111111111 0.31666666666666665 0.041666666666666664 0.11481481481481481
1 0.7597222222222222 0.5111111111111111 0.041666666666666664 0.16296296296296298
1 0.8861111111111111 0.49444444444444446 0.044444444444444446 0.15925925925925927
1 0.35694444444444445 0.4148148148148148 0.041666666666666664 0.1259259259259259
1 0.1736111111111111 0.3314814814814815 0.030555555555555555 0.09259259259259259
1 0.6986111111111111 0.31666666666666665 0.041666666666666664 0.11481481481481481
