1 0.18611111111111112 0.37962962962962965 0.03888888888888889 0.12222222222222222
1 0.8875 0.23703703703703705 0.025 0.08148148148148149
1 0.18611111111111112 0.37962962962962965 0.03888888888888889 0.12222222222222222
1 0.8875 0.23703703703703705 0.025 0.08148148148148149
1 0.18611111111111112 0.37962962962962965 0.03888888888888889 0.12222222222222222
1 0.8875 0.23703703703703705 0.025 0.08148148148148149
