1 0.3527777777777778 0.3851851851851852 0.044444444444444446 0.1111111111111111
1 0.7013888888888888 0.4666666666666667 0.041666666666666664 0.17037037037037037
1 0.8138888888888889 0.5555555555555556 0.05555555555555555 0.17037037037037037
1 0.8486111111111111 0.8851851851851852 0.10277777777777777 0.2222222222222222
