1 0.7583333333333333 0.45740740740740743 0.044444444444444446 0.15925925925925927
1 0.5152777777777777 0.3814814814814815 0.041666666666666664 0.13333333333333333
1 0.7027777777777777 0.46111111111111114 0.044444444444444446 0.15925925925925927
1 0.5902777777777778 0.37777777777777777 0.041666666666666664 0.1259259259259259
1 0.7583333333333333 0.45740740740740743 0.044444444444444446 0.15925925925925927
1 0.5152777777777777 0.3814814814814815 0.041666666666666664 0.13333333333333333
1 0.7027777777777777 0.46111111111111114 0.044444444444444446 0.15925925925925927
1 0.5902777777777778 0.37777777777777777 0.041666666666666664 0.1259259259259259
1 0.7583333333333333 0.45740740740740743 0.044444444444444446 0.15925925925925927
1 0.5152777777777777 0.3814814814814815 0.041666666666666664 0.13333333333333333
1 0.7027777777777777 0.46111111111111114 0.044444444444444446 0.15925925925925927
1 0.5902777777777778 0.37777777777777777 0.041666666666666664 0.1259259259259259
