1 0.8236111111111111 0.3962962962962963 0.03611111111111111 0.13333333333333333
1 0.4 0.3574074074074074 0.03888888888888889 0.11481481481481481
1 0.8236111111111111 0.3962962962962963 0.03611111111111111 0.13333333333333333
1 0.4 0.3574074074074074 0.03888888888888889 0.11481481481481481
1 0.8236111111111111 0.3962962962962963 0.03611111111111111 0.13333333333333333
1 0.4 0.3574074074074074 0.03888888888888889 0.11481481481481481
