1 0.7708333333333334 0.45185185185185184 0.030555555555555555 0.14074074074074075
1 0.8208333333333333 0.4388888888888889 0.03611111111111111 0.12962962962962962
1 0.7847222222222222 0.26666666666666666 0.030555555555555555 0.1111111111111111
1 0.5166666666666667 0.3888888888888889 0.03333333333333333 0.14074074074074075
1 0.19166666666666668 0.16296296296296298 0.016666666666666666 0.05185185185185185
1 0.7708333333333334 0.45185185185185184 0.030555555555555555 0.14074074074074075
1 0.8208333333333333 0.4388888888888889 0.03611111111111111 0.12962962962962962
1 0.7847222222222222 0.26666666666666666 0.030555555555555555 0.1111111111111111
1 0.5166666666666667 0.3888888888888889 0.03333333333333333 0.14074074074074075
1 0.19166666666666668 0.16296296296296298 0.016666666666666666 0.05185185185185185
1 0.7708333333333334 0.45185185185185184 0.030555555555555555 0.14074074074074075
1 0.8208333333333333 0.4388888888888889 0.03611111111111111 0.12962962962962962
1 0.7847222222222222 0.26666666666666666 0.030555555555555555 0.1111111111111111
1 0.5166666666666667 0.3888888888888889 0.03333333333333333 0.14074074074074075
1 0.19166666666666668 0.16296296296296298 0.016666666666666666 0.05185185185185185
