1 0.24166666666666667 0.3277777777777778 0.03333333333333333 0.11481481481481481
1 0.6819444444444445 0.37962962962962965 0.041666666666666664 0.12962962962962962
1 0.7513888888888889 0.5111111111111111 0.041666666666666664 0.17037037037037037
1 0.4847222222222222 0.4648148148148148 0.04722222222222222 0.15925925925925927
1 0.8375 0.27037037037037037 0.03611111111111111 0.1111111111111111
1 0.06805555555555555 0.3648148148148148 0.03611111111111111 0.12222222222222222
1 0.24166666666666667 0.3277777777777778 0.03333333333333333 0.11481481481481481
1 0.6819444444444445 0.37962962962962965 0.041666666666666664 0.12962962962962962
1 0.7513888888888889 0.5111111111111111 0.041666666666666664 0.17037037037037037
1 0.4847222222222222 0.4648148148148148 0.04722222222222222 0.15925925925925927
1 0.8375 0.27037037037037037 0.03611111111111111 0.1111111111111111
1 0.06805555555555555 0.3648148148148148 0.03611111111111111 0.12222222222222222
1 0.24166666666666667 0.3277777777777778 0.03333333333333333 0.11481481481481481
1 0.6819444444444445 0.37962962962962965 0.041666666666666664 0.12962962962962962
1 0.7513888888888889 0.5111111111111111 0.041666666666666664 0.17037037037037037
1 0.4847222222222222 0.4648148148148148 0.04722222222222222 0.15925925925925927
1 0.8375 0.27037037037037037 0.03611111111111111 0.1111111111111111
1 0.06805555555555555 0.3648148148148148 0.03611111111111111 0.12222222222222222
