1 0.8694444444444445 0.4444444444444444 0.044444444444444446 0.14814814814814814
1 0.6180555555555556 0.34629629629629627 0.030555555555555555 0.12962962962962962
1 0.8694444444444445 0.4444444444444444 0.044444444444444446 0.14814814814814814
1 0.6180555555555556 0.34629629629629627 0.030555555555555555 0.12962962962962962
1 0.8694444444444445 0.4444444444444444 0.044444444444444446 0.14814814814814814
1 0.6180555555555556 0.34629629629629627 0.030555555555555555 0.12962962962962962
