1 0.5375 0.8425925925925926 0.13055555555555556 0.2777777777777778
1 0.6194444444444445 0.4166666666666667 0.044444444444444446 0.15185185185185185
1 0.28055555555555556 0.3592592592592593 0.03333333333333333 0.1037037037037037
