1 0.675 0.3537037037037037 0.03333333333333333 0.12962962962962962
1 0.8375 0.44814814814814813 0.04722222222222222 0.16296296296296298
1 0.4125 0.37777777777777777 0.04722222222222222 0.1111111111111111
