0 0.5493895671476138 0.643824027072758 0.05771365149833518 0.14720812182741116
0 0.3940066592674806 0.6869712351945855 0.04661487236403995 0.11844331641285956
1 0.7746947835738068 0.467005076142132 0.033296337402885685 0.17258883248730963
1 0.7081021087680355 0.4509306260575296 0.0244173140954495 0.1065989847715736
1 0.7746947835738068 0.467005076142132 0.033296337402885685 0.17258883248730963
1 0.7081021087680355 0.4509306260575296 0.0244173140954495 0.1065989847715736
1 0.7746947835738068 0.467005076142132 0.033296337402885685 0.17258883248730963
1 0.7081021087680355 0.4509306260575296 0.0244173140954495 0.1065989847715736
